EMAIL,NAME,COUNTRY,NUMBER
partywithdjbillyo@yahoo.com,William Ohocinski,UNITED STATES,15707307310
mjalasutram@gmail.com,Murali Jalasutram,UNITED STATES,18478474155
ardprollc@gmail.com,James Ard,UNITED STATES,17199801186
djemilahbirnie@gmail.com,Djemilah Birnie,UNITED STATES,15415388493
bbqchickenrobot@gmail.com,Troy Robinson,UNITED STATES,13104218769
roknich@cox.net,Mark Roknich,UNITED STATES,19499540001
helmsn@mesaproducts.com,Nathan Helms,UNITED STATES,19183846163
asgharraza@gmail.com,Syed Asghar Raza,UNITED STATES,12247756034
landolakestackle@aol.com,jim hugunin,UNITED STATES,16308496648
theglampercampersd@gmail.com,Rachel ONeal,UNITED STATES,19545911248
admin@commonwealthcare.org,"Commonwealth Care Alliance, Inc",UNITED STATES,16174260600
a8faa72164e7dcdf9d76c6c63ebcdf30-26856710@contact.gandi.net,Andres Quezada,UNITED STATES,12019697554
dorris@bateristler.com,Dorris Breanne Medhurst,UNITED STATES,16515094321
shonwaknine@gmail.com,shon waknine,UNITED STATES,13478222084
axlinc@hotmail.com,James Rogers,UNITED STATES,12153958699
brennansim@mac.com,Brennan Sim,UNITED STATES,15033809106
nst933z05ekg4gfbns@domainnameprivacy.com,Name Administrator,UNITED STATES,15129801911
marketing@americanvacationliving.com,Thomas Svanstedt,UNITED STATES,15613850071
tony_dallo@yahoo.com,Tony Zaya,UNITED STATES,15862063200
yaadrich@icloud.com,Yaadrich Peart,UNITED STATES,18045073645
davidbaturoltd@gmail.com,David Baturo,UNITED STATES,19175586263
jan.opalka@gmail.com,Jan Opalka,UNITED STATES,18283980040
daviddeshotels@gmail.com,David Deshotels,UNITED STATES,12259336215
lselinsk@verizon.net,fivefinger LLC,UNITED STATES,15165246528
TheCompassSpa@outlook.com,Krystine Kuecha,UNITED STATES,18134022089
burneylcaa@gmail.com,Justin Burney,UNITED STATES,13522094019
lighting.amc@gmail.com,Carlos a campos,UNITED STATES,17866566580
mnix@usa.net,Mark Nix,UNITED STATES,15129234760
alisonchyba@gmail.com,Alison Chyba,UNITED STATES,19134998541
mwretzlaff@gmail.com,Mark Retzlaff,UNITED STATES,19163589661
joepursley@hotmail.com,Joe Pursley,UNITED STATES,17274325220
tmckinnies77@gmail.com,Troy McKinnies,UNITED STATES,18722206602
robertnettles@gmail.com,Robert Nettles,UNITED STATES,18645936339
41798s6q8457@filteredemailaddress.com,Anthony Warner,UNITED STATES,14129838669
premetoolz@gmail.com,Nathan Kebrom,UNITED STATES,14693587122
domainalerts@liquidweb.com,Domain Administrator,UNITED STATES,18005804985
david_jia_6000@yahoo.com,Wei Jia,UNITED STATES,13528704536
mmwalter@me.com,Michael Walter,UNITED STATES,18583421342
david.strackany@developmentnow.com,David Strackany,UNITED STATES,18003870849
nycbp@outlook.com,George Logan,UNITED STATES,12072451566
atamuratkaynar@gmail.com,Ata Murat Kaynar,UNITED STATES,14124369496
dhairyapatel709@gmail.com,iva cole,UNITED STATES,12026553540
tphilgreen@youthfront.com,Christopher Philgreen,UNITED STATES,19139156677
millardlsweeney@outlook.com,Millard Sweeney,UNITED STATES,19207252729
main@bestmarketingsolution.info,AJ remodeling and construction Llc,UNITED STATES,18885566367
knjkoepke@gmail.com,Jesse Koepke,UNITED STATES,14065461304
bit.ops.sec@gmail.com,RSJ,UNITED STATES,19083362836
kaydi1539@gmail.com,Trischaday Demetrius,UNITED STATES,13214422013
reptileforumstore@gmail.com,Bailey Anderson,UNITED STATES,13304229810
tjcardona@gmail.com,Tomas Javier Cardona,UNITED STATES,17872397404
o.yeung@usesino.com,Esino USA,UNITED STATES,16268233500
agurdov@gmail.com,Aman Gurdov,UNITED STATES,14193202676
officialnewffus@gmail.com,Brian  Chaplain,UNITED STATES,15083267212
m2o_d9_5ip@xhorse.top,Domain Administrator,UNITED STATES,17025381873
lakeside.business.sol@gmail.com,Thalia Ravlin,UNITED STATES,12079464736
spscanlon@gmail.com,Sean Scanlon,UNITED STATES,19196642002
discovolante19@outlook.com,Megan Reed,UNITED STATES,18088681707
texram@hotmail.com,David Lin,UNITED STATES,16266737086
luckysnaturaloil@gmail.com,KaLeif Gaines,UNITED STATES,15867465159
Thomasmaierohio@gmail.com,Thomas Maier,UNITED STATES,13304756073
joe.siordia@gmail.com,Joseph Siordia,UNITED STATES,13602134123
3xdomains@gmail.com,S Jon Grant,UNITED STATES,17027219077
aiyannamaliah@gmail.com,A Leyden,UNITED STATES,17329100070
praterRealestateanddevelopment@gmail.com,Frederick E Prater,UNITED STATES,17707714439
JessicaUnder89@gmail.com,JessicaUnder89 JessicaUnder89,UNITED STATES,15206339898
gallaghersean@hotmail.com,Sean Gallagher,UNITED STATES,17243556445
cjschleifer@gmail.com,Chaim Schleifer,UNITED STATES,14434882403
Adaptiveattire@gmail.com,Ryan Rivera,UNITED STATES,14074030029
lf380lf380@hotmail.com,lin da,UNITED STATES,19142499742
it@hoffenmer.com,David Hoffenmer,UNITED STATES,12156188600
megan@solutionson2nd.com,Megan DeCicco,UNITED STATES,18053259747
dan@justdropped.com,Justdropped.com Inc,UNITED STATES,19545943888
kailyndhammons@gmail.com,Kailyn Hammons,UNITED STATES,17028306924
buihuunghia098456@gmail.com,Linda R. Walker,UNITED STATES,18708835234
keithbrianauerbach@yahoo.com,Keith Auerbach,UNITED STATES,17472358531
domainorders@jndla.com,Domain Orders,UNITED STATES,18002077160
jose@evergreenford.com,Taylor Miller,UNITED STATES,14253926900
thornton68sande5rs@gmail.com,ThOrN ThOrN,UNITED STATES,19144141892
lalaramrishi@gmail.com,Rishi lalaram,UNITED STATES,13477080093
chiara.englishlessons@gmail.com,Chiara,UNITED STATES,15104617438
vipfeeen@gmail.com,Jam Mr,UNITED STATES,12354556573
jamesworker1@yahoo.com,James Worker,UNITED STATES,19415687986
sereen.sumner@hotmail.com,Sereen Sumner,UNITED STATES,13013577627
vijay@kalwani.biz,Agasvi LLC,UNITED STATES,13072220066
pka523@aol.com,phil andersch,UNITED STATES,15416016321
lisboasilviamonica@gmail.com,SILVIA LISBOA,UNITED STATES,17863141083
gil@winevegas.com,Gil Schwarz,UNITED STATES,17028088813
togathompson@gmail.com,robert thompson,UNITED STATES,15188671117
homenj1991@gmail.com,"John Cannon, Jr.",UNITED STATES,16097609262
robschommer@gmail.com,Rob Schommer,UNITED STATES,19374783728
justinbosre@gmail.com,Justin Giuliano,UNITED STATES,17815266741
joejoenamecheap1@gmail.com,qin jialu,UNITED STATES,14877474944
audra@grassia.co,Audra Grassia,UNITED STATES,16174474934
30cadcfe8b1486b834ead9915a4d565b-26859293@contact.gandi.net,William Mayes,UNITED STATES,14106601047
gaines10000@yahoo.com,Stephen Gaines,UNITED STATES,17406012860
soporteicloud217@gmail.com,andrew darker,UNITED STATES,16105695988
auctions@godaddy.com,Domain Administrator,UNITED STATES,18663519586
info@drakestoneliving.com,Domain Administrator,UNITED STATES,18006989818
steve.depoe@gmail.com,Steve Depoe,UNITED STATES,18173685682
popisteve@gmail.com,Steve Pendergrass,UNITED STATES,14696677592
dakhavan@bizpronet.com,Charles Lewis,UNITED STATES,14056345401
antellitocci@gmail.com,Andrew Tellitocci,UNITED STATES,15135354293
info.ozenterprisesllc@gmail.com,Iraj Zolnasr,UNITED STATES,14152711342
andrewkennedyrx@gmail.com,Andrew Kennedy,UNITED STATES,13025353176
hostmaster@igicom.com,Brad Reisner,UNITED STATES,12126250100
scorpionmstudios@gmail.com,bryanna waugh,UNITED STATES,18567239089
info@indigoconcepts.net,Indigo Concepts,UNITED STATES,12028487883
deanthomas15@gmail.com,Dean Thomas,UNITED STATES,16613092155
devindavie@gmail.com,Devin Davie,UNITED STATES,18043822064
lwlimitedinc@gmail.com,Derek Little,UNITED STATES,18503219384
naturapure@gmail.com,Albert Hong,UNITED STATES,19092791895
nccpa13@gmail.com,Mark Hannay,UNITED STATES,17042932441
tim_nyc@ymail.com,Tim Yevt,UNITED STATES,17185511852
nurul.haque3243@gmail.com,nurul haque,UNITED STATES,16613720017
firelemming21@yahoo.com,Lee Murray,UNITED STATES,18315668266
swdcbiz4u@gmail.com,Michael Chavez,UNITED STATES,15057219940
silashernandez71@gmail.com,Silas Ezra Hernandez,UNITED STATES,16027273683
kyledpratt@gmail.com,Kyle Pratt,UNITED STATES,13607401090
scott-b@comcast.net,Scott Bacon,UNITED STATES,15207302529
ssgroupslink@gmail.com,abeykoonge shamel,UNITED STATES,12109966667
kathleen.finnegan@gmail.com,Kathleen Finnegan,UNITED STATES,17037370660
djfreddv@gmail.com,Alfred Valdez,UNITED STATES,15596969060
nilesh@apex.net,Nilesh Sangoi,UNITED STATES,12706911837
smpeters.ldpeters@gmail.com,Steven Peters,UNITED STATES,19146568737
mark.clm@hotmail.com,Mark Neff,UNITED STATES,19514909930
rickwoodson2@gmail.com,Rick woodson,UNITED STATES,18135130815
frantzftelfort@gmail.com,Frantz Telfort,UNITED STATES,19545582586
lmgennis@gmail.com,Leader Mchaki,UNITED STATES,12142260774
fortissolutions68@gmail.com,Antoinette Clarke,UNITED STATES,14016991425
jaque.kellem@aol.com,Joseph Fusari,UNITED STATES,17037054819
josh_quiz@yahoo.com,Josh Quisenberry,UNITED STATES,12819014630
wendellhill@wendellhill.com,Wendell Hill,UNITED STATES,13015705311
francesgannonx@gmail.com,Andy Walker,UNITED STATES,12408633714
v4434499883@gmail.com,VITALY PETROV,UNITED STATES,14434499883
costasgiannoukakis@yahoo.gr,Konstantinos Giannoukakis,UNITED STATES,17183137143
jobeterrance@yahoo.com,Sunchase Consultants,UNITED STATES,18179959500
jorg@AGENT41.com,Jorgy Jorgensen,UNITED STATES,16125978472
apmaurer@gmail.com,Adam Maurer,UNITED STATES,12817721151
deepakgabraham@gmail.com,deepak abraham,UNITED STATES,18057933404
makeupatlanta@yahoo.com,CHERYL ROSENBLUM,UNITED STATES,14042297372
eric@rothfus.com,ERIC ROTHFUS,UNITED STATES,15123067941
b62a318a99d66853123f87c69825730b-26859930@contact.gandi.net,Judith Quintas Baez,UNITED STATES,15129610997
rockymike@gmail.com,Mike Dotsch,UNITED STATES,19894712164
robert.harrod@techngs.com,Robert Harrod,UNITED STATES,13152713049
beth@hallworld.net,Elizabeth Hall,UNITED STATES,16154917514
d16b50cb061e7a2e95e3d51b670e6164-18341363@contact.gandi.net,Mark Swier,UNITED STATES,16466612489
matthewsnellokc@gmail.com,Matthew Snell,UNITED STATES,14059197242
ernymv@gmail.com,Ernesto Maldonado,UNITED STATES,15052611138
assetinventoryredemption@gmail.com,John Baldino,UNITED STATES,12017024413
peoplefactory@protonmail.com,Miles Hall,UNITED STATES,17348005281
kjwalker95@yahoo.com,Keven Walker,UNITED STATES,19167471909
brett.sandler2@gmail.com,Brett Sandler,UNITED STATES,18609890606
thebryanyu@gmail.com,bryan yu,UNITED STATES,12132551519
office@osageproductions.com,Derek Granquist,UNITED STATES,19702832171
byrdblue@gmail.com,Jonathan Myers,UNITED STATES,15419962569
saundrahighsmith@hotmail.com,Saundra Highsmith,UNITED STATES,13162134580
michaelhutta@gmail.com,Michael Hutta,UNITED STATES,14802480819
adam@griffindomains.com,Adam Heroux,UNITED STATES,19134897671
dboyce@sofairusa.com,Diana Boyce,UNITED STATES,17632136567
locogringotejano@gmail.com,Jeff Gillen,UNITED STATES,15124877774
kat@hiline.build,Duane Dore,UNITED STATES,19147148874
karan@socioh.com,Karan Jassar,UNITED STATES,16502049038
melanie@jeffersonflamand.com,Melanie Flamand,UNITED STATES,14016395097
dangarcialta@gmail.com,Dan Garcia,UNITED STATES,15127612099
milwelfare@outlook.com,Larry Jones,UNITED STATES,12076258820
gwientjes@gmail.com,Greg Wientjes,UNITED STATES,16502234659
daryle@alamo-title.com,David Cook,UNITED STATES,18174733332
jkauefate@outlook.com,Jorge Kauefate,UNITED STATES,17864247110
lakegamescontact@gmail.com,Walker O'Brien,UNITED STATES,16304085648
victorgaleanarios@gmail.com,Victor Galeana,UNITED STATES,14244229751
justin.king@jdmsolutions.com,Justin King,UNITED STATES,12569555212
regispei@gmail.com,Regis Pei,UNITED STATES,15628105999
mohamed.alasmar.1994@gmail.com,Michael Frank,UNITED STATES,12569730977
susanwshank@outlook.com,Susan Shank,UNITED STATES,18034105560
riskshotllc@gmail.com,Risk Shot,UNITED STATES,19195993804
cameron@retroliogames.com,Cameron Colorado,UNITED STATES,14422263766
armorllcgaragedoors@gmail.com,Christian Salley,UNITED STATES,14175980142
sales@aplinc.us,Philip Mueller,UNITED STATES,15306777700
paul@prbcomputers.com,Paul  . Bomboy,UNITED STATES,18147034141
kendorothy26@gmail.com,Kenenth Dorothy,UNITED STATES,19786974180
informationtechnology@alexza.com,Alexza Pharmaceuticals,UNITED STATES,16509447000
jlack@roiventures.com,Jonathan Lack,UNITED STATES,17135397978
amandajlevasseur@outlook.com,Amanda Levasseur,UNITED STATES,19207391901
ahmed_nauman@yahoo.com,Nauman Ahmed,UNITED STATES,10000000000
julio@jrm77.com,Julio R Martinez,UNITED STATES,13219171028
La.ibragim@gmail.com,Ibragim Akhmedov,UNITED STATES,13232026305
rrent@blueclay.com,Kevin Presley,UNITED STATES,13128699250
atilla.ozdemir@gmail.com,Atilla Ozdemir,UNITED STATES,12028486175
muelltyl@gmail.com,Tyler Mueller,UNITED STATES,17156601626
sales@yourfiresite.com,Terry Cain,UNITED STATES,13365250000
domains@cashflowclubs.org,YHWH Temple Bank,UNITED STATES,13124450640
jondonjensen@gmail.com,jon jensen,UNITED STATES,16469437373
krazytaco@hotmail.com,Benjamin Bryant,UNITED STATES,12702560573
christian.habberstad@gmail.com,christian habberstad,UNITED STATES,16314492003
spragues72@gmail.com,Shane,UNITED STATES,18322659901
domains@shift2.email,Domain Administrator,UNITED STATES,16786083485
aparker48@gmail.com,Alan Parker,UNITED STATES,19037469444
redstoneadm@gmail.com,Michael Kim,UNITED STATES,13104050506
pjluciano@protonmail.com,Peter Luciano,UNITED STATES,18178793022
whitaker@jwhitakermcrae.com,Whitaker McRae,UNITED STATES,19047036450
dcroorbach@gmail.com,David Roorbach,UNITED STATES,17653910852
kyle@cisflorida.us,Conquest Integrated Solutions,UNITED STATES,18505859432
qnohra@mac.com,Quincy Preston,UNITED STATES,12149230687
spamblocker.v8@gmail.com,Derek Rodriguez,UNITED STATES,15555555555
marco.seabra@workestrate.net,Marco Seabra,UNITED STATES,18168081525
payronecs1972@gmail.com,Teri Roben,UNITED STATES,14153619253
laundrykingbayridge@gmail.com,Angela Kellun,UNITED STATES,17182385000
mdbarry@fwminc.com,FWM INC,UNITED STATES,16035783366
BECKSAFFARY@GMAIL.COM,BEHROUZ SAFFARY,UNITED STATES,18184244007
rahul_ravel@yahoo.com,Rahul Ravel,UNITED STATES,15039704124
elizabeth@spirithouseglass.com,Elizabeth Robinson,UNITED STATES,16012126635
ckeller72@yahoo.com,Charles Keller,UNITED STATES,18179097605
kern.brayden@gmail.com,Brayden Kern,UNITED STATES,19134755993
streetpoet1111@gmail.com,Second Chance,UNITED STATES,19178376432
dzuknick@yahoo.com,Daniel Zuknick,UNITED STATES,19418753787
ballooncollege@gmail.com,Steven Phillips,UNITED STATES,16142023680
domains@steyn.io,Jean Steyn,UNITED STATES,13072248662
n.singer1@gmail.com,Nathanael Singer,UNITED STATES,16199934300
schmidc918@gmail.com,Toni Hart,UNITED STATES,19193984576
andrew.hoffman@rptg.net,Andrew Hoffman,UNITED STATES,17193391895
jd_ixa@yahoo.com,Jonathan Davis,UNITED STATES,18044432550
dasweetlemon21@gmail.com,Juan Fernandez,UNITED STATES,14792502725
kmonastyrsky@gmail.com,Tatyana Monastyrsky,UNITED STATES,18003141110
SIGNALAV@YAHOO.COM,Mark Slubar,UNITED STATES,12107881021
osmanfindik1@hotmail.com,Osman Findik,UNITED STATES,18328070221
sizmirlian@hotmail.com,Sarkis Izmirlian,UNITED STATES,12126886673
wsop1978@gmail.com,Matthew Edge,UNITED STATES,13362120530
nichelle@brandenchanting.com,Nichelle Pace,UNITED STATES,18562951802
kevin.mcfall@gmail.com,Kevin McFall,UNITED STATES,13125433683
willsunpsy@gmail.com,Vitaly Malyuta,UNITED STATES,13476681811
fanat5280@msn.com,Carolyn Crow,UNITED STATES,18033893439
pgabrish@gmail.com,Patrick Gabrish,UNITED STATES,15034198266
shaneentjohnson@gmail.com,Shaneen Johnson,UNITED STATES,17323370831
birjandi2000@gmail.com,Amir Birjandi,UNITED STATES,19493783007
sales@shinemore.com.sg,"LEVI P DOW, III",UNITED STATES,19518160604
stephane@laovn.com,Stephane Jackson,UNITED STATES,14156598328
rortiz.max@gmail.com,Paola Alejandra Perez De La Toba,UNITED STATES,13855285173
jasonyormark@gmail.com,Jason Yormark,UNITED STATES,14252334078
ISABELLACRESPOA@GMAIL.COM,Isabella Crespo,UNITED STATES,19177711474
melissa@webgroupusa.com,Melissa Gassman,UNITED STATES,12143956957
pskop9@gmail.com,Pablo Saucedo Jr,UNITED STATES,13038848147
tjfucci@gmx.com,Todd Fucci,UNITED STATES,15089520001
jbus@microwhites.com,J W,UNITED STATES,12537773779
charles.monie@gmail.com,Pure Souls LLC,UNITED STATES,12029267596
jamie.c.loper@gmail.com,Jamie Loper,UNITED STATES,19154745096
CakeCode.net@gmail.com,Chandra Kamma,UNITED STATES,19041937414
brett@weathers5.com,Brett Weathers,UNITED STATES,17133800306
fernandopetroleo@gmail.com,F C,UNITED STATES,14079523425
ahashim@nrdiusa.com,Aziz Hashim,UNITED STATES,14044991960
drhag@outlook.com,Danny hamons,UNITED STATES,12542653699
luke.tfh@gmail.com,Luke G Potter,UNITED STATES,17075920784
brianjshuman@gmail.com,Shuman,UNITED STATES,17023060541
wkm.qbs@gmail.com,Wayne Miller,UNITED STATES,19495487786
gopi.desam@gmail.com,Gopinath Desam,UNITED STATES,15718300102
domains@cogitocorp.com,Cogito Corp,UNITED STATES,16175803101
ronpar@cox.net,Ron Parsons,UNITED STATES,12087204428
velgenov@gmail.com,Vel Genov,UNITED STATES,18722021247
caratripsalot@gmail.com,Cara Tripicchio,UNITED STATES,13106009895
ben.miller@gmail.com,Benjamin Miller,UNITED STATES,12134477719
Domainnames.admin@target.com,Domain Manager,UNITED STATES,16126960063
globeemagic@gmail.com,J Paul Thomas,UNITED STATES,14806253200
xavier@xbunderwood.com,Xavier Underwood,UNITED STATES,12025465400
c9c2a91e8f4424bee937f5a13d940ee4-26855471@contact.gandi.net,Pamela B Johnson,UNITED STATES,15058916318
jacobnarmstrong@outlook.com,Jacob Armstrong,UNITED STATES,14029230875
elsie.rivera15@gmail.com,Elsie Rivera,UNITED STATES,17872483420
debshepherd@animalbiotech.com,ABI,UNITED STATES,12157667413
womenskatetoo@gmail.com,Alexandria Baba,UNITED STATES,13212018014
rj1yigv3x8ix0zs0pwoj@r.o-w-o.info,MariCarmen Bellver,UNITED STATES,13234474468
support@212crm.com,patrick fairon,UNITED STATES,19495226677
teemuairamo@gmail.com,Teemu Airamo,UNITED STATES,19179519939
alawdi86@icloud.com,Ali Amari,UNITED STATES,16613784391
eponce@hcfm.org,Holy Cross Family Ministries Holy Cross Family Ministries,UNITED STATES,15082384095
anthonyerussell@outlook.com,Anthony Russell,UNITED STATES,13525232007
Sal@mmg1.com,Sal Farinella,UNITED STATES,18665991370
7faith7ar.ap@gmail.com,Kia Ismael,UNITED STATES,17089437627
mellowdave@gmail.com,David Hunter,UNITED STATES,15122916584
docgaetadpt@gmail.com,Rick Gaeta,UNITED STATES,12145511566
bigtime7777@sbcglobal.net,Jimmy Haimann,UNITED STATES,16309562189
larrysmileyel@gmail.com,Larry Smiley El,UNITED STATES,18333135683
johnjcsmith@outlook.com,Smith John,UNITED STATES,18003154125
robert@votertruth.net,ROBERT CARON,UNITED STATES,12025539053
je.ssy.cawilson1946ess.y11wilson@gmail.com,Fernando Riedel,UNITED STATES,14151817729
Jraqregan925@gmail.com,Jasmin Regan,UNITED STATES,13132059301
shopsoulglow@gmail.com,Chelsea Cheatham,UNITED STATES,16015034825
blatworkshop@gmail.com,Johnathan Lendo,UNITED STATES,12252846201
jamesgray119@rambler.ru,James Gray,UNITED STATES,19647366352
artilleo@gmail.com,Artil Leo,UNITED STATES,12488905973
d026d15e9a611f3decc3d10357382fc8-26846077@contact.gandi.net,Angela J Gordon,UNITED STATES,17128008739
4000bananas@gmail.com,Ann Jorgensen,UNITED STATES,13607756440
shruthipasham9@gmail.com,Praveen Pasham,UNITED STATES,12033824048
jenniferlacharite@hotmail.com,Jennifer LaCharite,UNITED STATES,19494128472
patrickpbacon@hotmail.com,Bacon Patrick,UNITED STATES,19157783666
geantvert556@aol.com,Allan Green,UNITED STATES,17862713433
italerts@madmobile.com,Bruce Bennett,UNITED STATES,18134002000
TTYME2NS@aol.com,TTYME2NS TTYME2NS,UNITED STATES,16153305184
ltpaulmaney@gmx.us,Paul Maney,UNITED STATES,19103960396
savvychelle.le@gmail.com,Lachelle Rogers,UNITED STATES,13019287127
pachecoenterprises@att.net,Erika Piedrahita,UNITED STATES,13055931816
zp@incash.org,Zachary PAVLIDES,UNITED STATES,19498878703
casasaric91@icloud.com,Aric Casas,UNITED STATES,12167102662
ceo.koupongs@gmail.com,amjad faqouseh,UNITED STATES,15612814450
talbizle@gmail.com,Scott Talbot,UNITED STATES,13305907591
jayanthkrishna@gmail.com,Fnu Jayanth,UNITED STATES,16504578888
dariankozz@gmail.com,Darian Khosravi,UNITED STATES,14055908490
madawkward@gmail.com,Abraxas Tattoo,UNITED STATES,17853937071
stevehaley1952@acsilc.com,Nashrah Mazhar,UNITED STATES,12063390682
tech@buddr.app,Cory Kelly,UNITED STATES,17075305565
carlesa360@gmail.com,Carlesa Deanna Green,UNITED STATES,12106938576
april@dalyweb.com,April Daly,UNITED STATES,19143912683
ali@industrious.net,Ali Fardshisheh,UNITED STATES,12025698488
srajput@gmail.com,Samir Rajput,UNITED STATES,19173751207
ganga@gangaenviro.com,Gangadhar Bathula,UNITED STATES,15106814614
info@snr7.com,Richard Hentosh,UNITED STATES,16106282142
julianrossmarkowitz@gmail.com,Julian Markowitz,UNITED STATES,13108539419
squire@bud.com,Squire Velves,UNITED STATES,18183044949
Jason@JasonTCrum.com,Jason Crum,UNITED STATES,13034720561
autumn@makinsales.com,Autumn Makin,UNITED STATES,13524550044
jim@ultraserv.net,Jim Alexander,UNITED STATES,18589671242
domains@nashapartments.com,Rachel Attarian,UNITED STATES,16159199555
haylie.moody26@gmail.com,Haylie Moody,UNITED STATES,13049397480
matanzo70@gmail.com,Felix A MATANZO,UNITED STATES,13127718028
ah08.29.02.4@gmail.com,Alix Mikel,UNITED STATES,14087569346
kenny.cox@kazoocreative.biz,Mona Azzam,UNITED STATES,13216890005
followthedjpresents@gmail.com,Darryl Dungee,UNITED STATES,14438008379
gltanaka@gmail.com,Greg Tanaka,UNITED STATES,14159689436
pensanet@gmail.com,Michael Leavitt,UNITED STATES,18502924005
dariusdharris1@gmail.com,Darius Harris,UNITED STATES,17858195780
appssolux@gmail.com,John Clark,UNITED STATES,12015553216
mkatsapas@gmail.com,myron Katsapas,UNITED STATES,15096792328
admin@bybros.us,Tony Trung,UNITED STATES,17652242318
rpremont@spacecycles.net,Randy Premont,UNITED STATES,13109935323
doliver9@mail.ccsf.edu,Damon Oliver,UNITED STATES,12096790435
ssalt73@gmail.com,forcefamilyoffice,UNITED STATES,19177476198
eliasocasio@yahoo.com,mr Elias Ocasio,UNITED STATES,12019090292
happyanika@hotmail.com,Anika DiGloria,UNITED STATES,17605860143
gg4energy@gmail.com,George Groner,UNITED STATES,18006181816
it@thinkpowersolutions.com,Domain Administrator,UNITED STATES,14159387721
info@hobbysoft.us,German Calatrava,UNITED STATES,17868485631
yenyeh@gmail.com,yen yeh,UNITED STATES,16323329686
cormoncable@gmail.com,Corey Henry,UNITED STATES,19145626701
nberger@digacore.com,Nathan Berger,UNITED STATES,17326465725
bguadagno@itsskinny.com,Bryan Guadagno,UNITED STATES,17328290418
f32974c6dec05ef1a32459c9a06f25bd-26860777@contact.gandi.net,Bill Robets,UNITED STATES,15414148617
JPont@APChampion.com,Jeffery Pont,UNITED STATES,15622362260
alfredmann42@yahoo.com,Alfred Mann,UNITED STATES,17083415808
olu_success101@yahoo.com,OLU SUCCESS,UNITED STATES,17185049131
sandip1@hotmail.com,Venket Kandanala,UNITED STATES,14699647959
royalebrandinc@gmail.com,Artyom Sadyhyan,UNITED STATES,13474060500
jerickorosco28@gmail.com,TERESA L BROWN TURPIN,UNITED STATES,18184125050
gfalcone812@gmail.com,Gerard Falcone,UNITED STATES,17328140728
barronsolomon@gmail.com,Barron Solomon,UNITED STATES,16157083057
AMikonis1980@yahoo.com,Arnold Mikonis,UNITED STATES,16168277442
jromero531@gmail.com,Jaime Romero,UNITED STATES,19178364476
fenil.rajkumar@gmail.com,Fenil Santhi,UNITED STATES,15127678806
krmaxn@gmail.com,Keenan Maxson,UNITED STATES,15128399981
merlo.phillip@gmail.com,Phillip Merlo,UNITED STATES,12096705828
chan1@comtecinfo.com,Chandra Gogineni,UNITED STATES,18178578004
jjarbo@anchordbc.com,John Jarbo,UNITED STATES,12488355815
trainia412@gmail.com,Trainia Trainia,UNITED STATES,12405812866
sstripl5@gmail.com,Sherry Triplett,UNITED STATES,14104917252
paradise@ppwdesign.com,Kerry Paradise,UNITED STATES,15084091433
sarahfrade1980@gmail.com,Sarah Frade,UNITED STATES,19789424705
julieconner@ymail.com,Julie Conner,UNITED STATES,19287104911
wwss@gmx.com,Daniel Seif,UNITED STATES,18182086880
tylersimms@live.com,Sherri Maddox,UNITED STATES,19514197352
amanda.schleede@vitalcircle.info,Amanda Schleede,UNITED STATES,17738512783
kevinvolk@volkco.com,Kevin Volk,UNITED STATES,15202369003
smartmassage@protonmail.com,Steven Le,UNITED STATES,17133649305
logan.deborde@gmail.com,Logan DeBorde,UNITED STATES,18596133041
rudovsf@gmail.com,Andrei Padaliaka,UNITED STATES,14155151101
MikeLewise45@gmail.com,MikeLewise45 MikeLewise45,UNITED STATES,12056339898
lewis.tristan@gmail.com,Tristan Lewis,UNITED STATES,13013571442
jeff@j-davis.com,Jeff Davis,UNITED STATES,14084183921
prettybundle13@gmail.com,Rhawndia Dailey,UNITED STATES,12152902719
brandon@hert.us,Brandon Hert,UNITED STATES,19106765989
nick@gerakines.net,Nick Gerakines,UNITED STATES,14159631165
turgayozdemir@yahoo.com,Turgay Ozdemir,UNITED STATES,17088008907
coreywhite810@gmail.com,Corey White,UNITED STATES,15089333128
james@tightlineproductions.com,Mark Lewis,UNITED STATES,13217254668
dddddb@comcast.net,richard bailey,UNITED STATES,18023752397
amesracing1@gmail.com,Amanda Ames,UNITED STATES,13107554242
dada896899@sina.com,Stacy Chambers,UNITED STATES,19292498692
2worldhit@gmail.com,Dobn Charles,UNITED STATES,17143425942
natia2009@gmail.com,Natia Porter,UNITED STATES,16462469571
delorenzop@gmail.com,Paula DeLorenzo,UNITED STATES,18286918131
rivmoore@indiana.edu,Rivkah Lillian Moore,UNITED STATES,18123457501
rgraves@gravesig.com,Robert L Graves,UNITED STATES,13143942121
michele@moneysmartlegacy.com,Michele Zeiler,UNITED STATES,18478044755
carmasterkenny@yahoo.com,kenneth holcombe,UNITED STATES,12484023032
thalfacer@chartermi.net,Thomas Halfacer,UNITED STATES,12317532669
mannydelrio1@gmail.com,Manuel Del Rio,UNITED STATES,15129999999
serpentrue@gmail.com,Joshua Tawes,UNITED STATES,14177206058
tevasje@gmail.com,Tevas Everett,UNITED STATES,13163123190
ahester24@my.whitworth.edu,Amanda Hester,UNITED STATES,15099999131
contacto@loteriasdominicanas.com.do,katherine cm,UNITED STATES,18094886877
aaron.r.lacy@gmail.com,Aaron Lacy,UNITED STATES,16192467657
langloisrhena@yahoo.com,Rhena,UNITED STATES,12183293662
kristinadshehadeh@gmail.com,Kristina Shehadeh,UNITED STATES,15712681134
Susan@classicjourneys.com,Edward Piegza,UNITED STATES,18584545004
rcbray12@me.com,Robert Bray,UNITED STATES,12038564662
gbustillo@protonmail.com,Gian Bustillo,UNITED STATES,17036064489
staft01@gmail.com,Sean Taft,UNITED STATES,14792221824
jrgregory@gmail.com,John Gregory,UNITED STATES,18049205435
paul@pcnerds.com,Paul Adamidis,UNITED STATES,16176559800
domains@rho.co,Alex Wheldon,UNITED STATES,18557438746
infitdelinfitnesswetrust@gmail.com,Ernesto Escamilla,UNITED STATES,15624189502
andreasapparel.01@gmail.com,Antricia Andrews,UNITED STATES,17728013485
lancemuscle@gmail.com,Lance Lynam,UNITED STATES,15153057013
dmail@usamoves.com,Paul Kubisen,UNITED STATES,16266447313
admin@professionaltax.us,Linda Rigal,UNITED STATES,14074294364
me@antonygravett.com,Antony Gravett,UNITED STATES,19173289858
domain.management@sterlingsolved.com,Adam John,UNITED STATES,19146238433
robert@drneedham.com,Robert Needham,UNITED STATES,12055671266
projahking@gmail.com,Jaheim King,UNITED STATES,14435637979
Marthaodele@gmail.com,Martha Odele,UNITED STATES,17024138207
storeforshemiah@gmail.com,Shemiah Morris,UNITED STATES,19999999999
joaniezhou@gmail.com,Xiao Xuan Song,UNITED STATES,16788622880
patterson.isla@gmail.com,Olin Patterson,UNITED STATES,17144200316
khickox@yahoo.com,Online Advice,UNITED STATES,14155687680
Carbon12Tv@gmail.com,Matt Mikka,UNITED STATES,13129279756
eclub@pacbell.net,Uzoma Ojogho,UNITED STATES,13233775768
igen.admin@gmail.com,IGEN Admin,UNITED STATES,18447396064
evanmullen36@gmail.com,Evan Mullen,UNITED STATES,18457050065
jasonle484@gmail.com,Jason,UNITED STATES,12158053396
jonesn87@gmail.com,Jesse Jones,UNITED STATES,17273371657
expired@dynadot.com,Pending Renewal or Deletion,UNITED STATES,16502620100
lillianhenrique@gmail.com,Lillian Henrique,UNITED STATES,12039176113
adrian@thedataloop.com,Adrian Mayron,UNITED STATES,14808629804
matthew.booth@boothlaw.com,Matthew Booth,UNITED STATES,15126323203
daveavilla@gmail.com,David Avilla,UNITED STATES,14085694044
kevinlu@redefinebrand.com,Kien-Lam Lu,UNITED STATES,14158600428
fgorordo@gmail.com,Leonardo Gorordo,UNITED STATES,13053181151
itsupport@caspianpolicy.org,Caspian Policy Center,UNITED STATES,12023493762
mthaggard@yahoo.com,Mark Thaggard,UNITED STATES,12022551660
helpforincome@gmail.com,Eric Follon,UNITED STATES,17192006719
TommyBarre44@gmail.com,TommyBarre44 TommyBarre44,UNITED STATES,12056639988
anish215@gmail.com,Anish Reddy,UNITED STATES,19723102280
rtoomey56@gmail.com,Ryan Toomey,UNITED STATES,16155748310
josherons@gmail.com,Josh Erons,UNITED STATES,12245415834
c20d.us@gmail.com,Chris Halstead,UNITED STATES,12061111111
rmerch1@gmail.com,rizwan merchant,UNITED STATES,18477014631
finchproservices@gmail.com,Nathan Finch,UNITED STATES,17377818286
echaltron@ratnest.us,Edward Chaltron,UNITED STATES,12487219912
gina@tcs.services,Gina Gray,UNITED STATES,14052747245
eric.grinnell@gmail.com,Eric Grinnell,UNITED STATES,18599822305
eavanhor@mtu.edu,Erik Van Horn,UNITED STATES,17152097522
apetrisi@alumni.nd.edu,Andrew Petrisin,UNITED STATES,12145046990
cs@egolaws.com,Law Office of Edward G. Operini,UNITED STATES,16267882355
dasheek@gmail.com,shawn escobar,UNITED STATES,18052705098
domainadmin@sncorp.com,Domain Manager,UNITED STATES,17753310222
OPO@DCIT.CO,Opo Herrera,UNITED STATES,13472798492
claus_ehlers@hotmail.com,Claus Ehlers,UNITED STATES,18582528442
davis.francine@gmail.com,Francine Ballard,UNITED STATES,15043435419
lori_shields@live.com,Lori Shields,UNITED STATES,14084311075
gabriella@accessos.io,Gabriella Wong,UNITED STATES,15103294382
hkim831@gmail.com,Ryan Kim,UNITED STATES,14108027989
lcolagiovanni@consultant.com,Louis Colagiovanni,UNITED STATES,18102156587
godaddyalerts@hugollc.com,Brian McGinn,UNITED STATES,16467660262
infrastructure@nts.com,NTS,UNITED STATES,17144509100
colinbrophy@thefuturesapp.com,Colin Brophy,UNITED STATES,18182315116
onlineimagehq@gmail.com,Pat Ryan,UNITED STATES,19726280487
c.andris.stevens@gmail.com,Cameron Stevens,UNITED STATES,17209341003
admin@honorshard.com,Jonathan Impson,UNITED STATES,18067864718
nick@bookkeeper360.com,Nicholas Pasquarosa,UNITED STATES,15164789303
johnplist@gmail.com,John List,UNITED STATES,12014249236
creativestudio24@gmail.com,Promila Rohatgi,UNITED STATES,18134042978
wkkami@aol.com,Kamitaki LLC,UNITED STATES,18088956226
armaangilani6@gmail.com,Armaan Gilani,UNITED STATES,18326831377
cphillips8921@gmail.com,Carlos Phillips,UNITED STATES,18168379193
nemolangeco@gmail.com,Nehemiah lange,UNITED STATES,15736909245
abakalarski@smwwtf.us,South Milwaukee WWTF South Milwaukee WWTF,UNITED STATES,14147688180
glenwrobertsii@gmail.com,Glen Roberts,UNITED STATES,13474227558
lucretiaenedetti@outlook.com,Lucretia Benedetti,UNITED STATES,16182869693
fortisfortunavc@gmail.com,Domenic Fotino,UNITED STATES,19286063850
pjmartinezb@gmail.com,Pedro Martinez-Bravo,UNITED STATES,17737899098
kingshoos@gmail.com,Garius Jackson,UNITED STATES,17274093276
orders@contactmb.com,Ryan Mortland,UNITED STATES,13147253584
SpiritFoxCrystals@gmail.com,Deanna Green,UNITED STATES,17083976939
davidmmacario@gmail.com,David Macario,UNITED STATES,18577629681
ourkaiserhaus@gmail.com,Sophie,UNITED STATES,12253159820
david@dasworks.com,DAS Works,UNITED STATES,15705854146
ridethematrix@gmail.com,Susan Ross,UNITED STATES,18016413964
wmwd1221@gmail.com,Jah Seh,UNITED STATES,16147821475
medatlasplus@gmail.com,Med Atlas,UNITED STATES,17737918048
info@normalitems.com,Domain Administrator,UNITED STATES,16823482300
Louieruiz3@yahoo.com,Louie Ruiz,UNITED STATES,15622298797
jeremesharpe@gmail.com,Jereme Sharpe,UNITED STATES,19293830107
balmurukan@gmail.com,Robinson,UNITED STATES,16184458403
uoleni@icloud.com,Uoleni Tupuola,UNITED STATES,18085515819
smiller@punkedblue.com,Sean Miller,UNITED STATES,13477662583
internext@gmail.com,Eric Verona,UNITED STATES,18609895756
service@dynu.com,Shiro Ando,UNITED STATES,16172937823
alisamyhusseini@gmail.com,Ali Husseini,UNITED STATES,13137446028
uspostmaster@outlook.com,Westley Slater,UNITED STATES,17075138348
diegotalberg@me.com,Diego Talberg,UNITED STATES,14074013021
giang9902@gmail.com,Blake farrar,UNITED STATES,84819722001
leaveatrail89@gmail.com,Tamika Covington,UNITED STATES,16097437745
sunnyblueqiu@yahoo.com,Ming Qiu,UNITED STATES,16263741957
catherine@mahongunnell.com,Catherine Mahon-Gunnell,UNITED STATES,12144994063
williamsrandy2448@gmail.com,Randy Williams,UNITED STATES,19549099751
passiondaye@gmail.com,Passion Daye,UNITED STATES,13373991461
daphnehmartinez@yahoo.com,Daphne Martinez,UNITED STATES,17605612516
steve@ca-pos.com,Steve Schultz,UNITED STATES,14158397533
oscar.moreno@starfishglobal.com,Oscar Moreno,UNITED STATES,16094373357
harold_smith@urmc.rochester.edu,"OyaGen, Inc",UNITED STATES,15852754267
Digital@dga.net,Gavriel Kullman,UNITED STATES,12027725600
t.ward@comcast.net,Thomas Ward,UNITED STATES,19413502463
mako8551@gmail.com,Patrick Houston,UNITED STATES,15594687866
seminario28@msn.com,Manuel Seminario,UNITED STATES,18042522488
domains@autovitalsinc.com,autovitals domains,UNITED STATES,18669492848
meadorintexas@gmail.com,Charles Meador,UNITED STATES,19406312993
Info@ohkie.com,Nate Mandel,UNITED STATES,18018109525
hostmaster@hackerposse.com,Joshua Rosen,UNITED STATES,16033185093
ken@kennethrjones.com,Kenneth Jones,UNITED STATES,16085018396
dtcandy128@gmail.com,Spencer Bogdanski,UNITED STATES,13022325274
webmaster@newblueinteractive.com,Brandt McCool,UNITED STATES,12028404124
mail@COSTAKRIKUNOV.COM,Fast Credit Network,UNITED STATES,18184864902
jmcdaniel34@liberty.edu,Jonathan McDaniel,UNITED STATES,12404318362
andre.claudet@comcast.net,Andre Claudet,UNITED STATES,15058561690
drcharleskent@gmail.com,Charles Kent,UNITED STATES,14693865658
printline.us@gmail.com,Melissa Rodriguez,UNITED STATES,13012500443
ulysses.proteau@gmail.com,Ulysses Proteau,UNITED STATES,15304079664
erik.u.noble@gmail.com,Erik Noble,UNITED STATES,12129207478
brooksthomas@verizon.net,Brooks Thomas,UNITED STATES,19175538131
